cpu_trace.vcd
$date
     Oct 19, 2021       03:54:08
$end

$version
 SystemC 2.3.3-Accellera --- Aug 24 2021 23:20:20
$end

$timescale
     1 ps
$end

$scope module SystemC $end
$var wire    1  aaaaa  clock       $end
$var wire    1  aaaab  tx_ack_from_robot       $end
$var wire    1  aaaac  tx_flag_to_robot       $end
$var wire   16  aaaad  tx_data_to_robot [15:0]  $end
$var wire    1  aaaae  rx_ack_to_robot       $end
$var wire    1  aaaaf  rx_flag_from_robot       $end
$var wire   16  aaaag  rx_data_from_robot [15:0]  $end
$var wire    1  aaaah  x_ack_from_robot       $end
$var wire    1  aaaai  x_flag_to_robot       $end
$var wire   16  aaaaj  x_data_to_robot [15:0]  $end
$var wire    1  aaaak  x_ack_to_robot       $end
$var wire    1  aaaal  x_flag_from_robot       $end
$var wire   16  aaaam  x_data_from_robot [15:0]  $end
$var wire    1  aaaan  _ack_from_robot       $end
$var wire    1  aaaao  _flag_to_robot       $end
$var wire   16  aaaap  _data_to_robot [15:0]  $end
$var wire    1  aaaaq  _ack_to_robot       $end
$var wire    1  aaaar  _flag_from_robot       $end
$var wire   16  aaaas  _data_from_robot [15:0]  $end
$var wire    1  aaaat  ack_from_robot       $end
$var wire    1  aaaau  flag_to_robot       $end
$var wire   16  aaaav  data_to_robot [15:0]  $end
$var wire    1  aaaaw  ack_to_robot       $end
$var wire    1  aaaax  flag_from_robot       $end
$var wire   16  aaaay  data_from_robot [15:0]  $end
$upscope $end
$enddefinitions  $end

$comment
All initial values are dumped below at time 0 sec = 0 timescale units.
$end

$dumpvars
1aaaaa
0aaaab
0aaaac
b0 aaaad
0aaaae
0aaaaf
b0 aaaag
0aaaah
0aaaai
b0 aaaaj
0aaaak
0aaaal
b0 aaaam
0aaaan
0aaaao
b0 aaaap
0aaaaq
0aaaar
b0 aaaas
0aaaat
0aaaau
b0 aaaav
0aaaaw
0aaaax
b0 aaaay
$end

#5000000000
0aaaaa

#10000000000
1aaaaa

#15000000000
0aaaaa

#20000000000
1aaaaa

#25000000000
0aaaaa

#30000000000
1aaaaa

#35000000000
0aaaaa

#40000000000
1aaaaa

#45000000000
0aaaaa

#50000000000
1aaaaa

#55000000000
0aaaaa

#60000000000
1aaaaa

#65000000000
0aaaaa

#70000000000
1aaaaa

#75000000000
0aaaaa

#80000000000
1aaaaa

#85000000000
0aaaaa

#90000000000
1aaaaa

#95000000000
0aaaaa

#100000000000
1aaaaa

#105000000000
0aaaaa

#110000000000
1aaaaa

#115000000000
0aaaaa

#120000000000
1aaaaa

#125000000000
0aaaaa

#130000000000
1aaaaa

#135000000000
0aaaaa

#140000000000
1aaaaa

#145000000000
0aaaaa

#150000000000
1aaaaa

#155000000000
0aaaaa

#160000000000
1aaaaa

#165000000000
0aaaaa

#170000000000
1aaaaa

#175000000000
0aaaaa

#180000000000
1aaaaa

#185000000000
0aaaaa

#190000000000
1aaaaa

#195000000000
0aaaaa

#200000000000
1aaaaa

#205000000000
0aaaaa

#210000000000
1aaaaa

#215000000000
0aaaaa

#220000000000
1aaaaa

#225000000000
0aaaaa

#230000000000
1aaaaa

#235000000000
0aaaaa

#240000000000
1aaaaa

#245000000000
0aaaaa

#250000000000
1aaaaa

#255000000000
0aaaaa

#260000000000
1aaaaa

#265000000000
0aaaaa

#270000000000
1aaaaa

#275000000000
0aaaaa

#280000000000
1aaaaa

#285000000000
0aaaaa

#290000000000
1aaaaa

#295000000000
0aaaaa

#300000000000
1aaaaa

#305000000000
0aaaaa

#310000000000
1aaaaa

#315000000000
0aaaaa

#320000000000
1aaaaa

#325000000000
0aaaaa

#330000000000
1aaaaa

#335000000000
0aaaaa

#340000000000
1aaaaa

#345000000000
0aaaaa

#350000000000
1aaaaa

#355000000000
0aaaaa

#360000000000
1aaaaa

#365000000000
0aaaaa

#370000000000
1aaaaa

#375000000000
0aaaaa

#380000000000
1aaaaa

#385000000000
0aaaaa

#390000000000
1aaaaa
b1 aaaad
b1 aaaaj
b1 aaaap
b1 aaaav

#395000000000
0aaaaa

#400000000000
1aaaaa

#405000000000
0aaaaa

#410000000000
1aaaaa

#415000000000
0aaaaa

#420000000000
1aaaaa

#425000000000
0aaaaa

#430000000000
1aaaaa

#435000000000
0aaaaa

#440000000000
1aaaaa

#445000000000
0aaaaa

#450000000000
1aaaaa

#455000000000
0aaaaa

#460000000000
1aaaaa

#465000000000
0aaaaa

#470000000000
1aaaaa

#475000000000
0aaaaa

#480000000000
1aaaaa

#485000000000
0aaaaa

#490000000000
1aaaaa

#495000000000
0aaaaa

#500000000000
1aaaaa
b10 aaaad
b10 aaaaj
b10 aaaap
b10 aaaav

#505000000000
0aaaaa

#510000000000
1aaaaa
b11 aaaap

#515000000000
0aaaaa

#520000000000
1aaaaa

#525000000000
0aaaaa

#530000000000
1aaaaa

#535000000000
0aaaaa

#540000000000
1aaaaa

#545000000000
0aaaaa

#550000000000
1aaaaa

#555000000000
0aaaaa

#560000000000
1aaaaa

#565000000000
0aaaaa

#570000000000
1aaaaa

#575000000000
0aaaaa

#580000000000
1aaaaa

#585000000000
0aaaaa

#590000000000
1aaaaa

#595000000000
0aaaaa

#600000000000
1aaaaa

#605000000000
0aaaaa

#610000000000
1aaaaa

#615000000000
0aaaaa

#620000000000
1aaaaa

#625000000000
0aaaaa

#630000000000
1aaaaa

#635000000000
0aaaaa

#640000000000
1aaaaa

#645000000000
0aaaaa

#650000000000
1aaaaa

#655000000000
0aaaaa

#660000000000
1aaaaa

#665000000000
0aaaaa

#670000000000
1aaaaa

#675000000000
0aaaaa

#680000000000
1aaaaa

#685000000000
0aaaaa

#690000000000
1aaaaa

#695000000000
0aaaaa

#700000000000
1aaaaa

#705000000000
0aaaaa

#710000000000
1aaaaa

#715000000000
0aaaaa

#720000000000
1aaaaa

#725000000000
0aaaaa

#730000000000
1aaaaa

#735000000000
0aaaaa

#740000000000
1aaaaa

#745000000000
0aaaaa

#750000000000
1aaaaa

#755000000000
0aaaaa

#760000000000
1aaaaa

#765000000000
0aaaaa

#770000000000
1aaaaa

#775000000000
0aaaaa

#780000000000
1aaaaa

#785000000000
0aaaaa

#790000000000
1aaaaa

#795000000000
0aaaaa

#800000000000
1aaaaa

#805000000000
0aaaaa

#810000000000
1aaaaa

#815000000000
0aaaaa

#820000000000
1aaaaa

#825000000000
0aaaaa

#830000000000
1aaaaa

#835000000000
0aaaaa

#840000000000
1aaaaa

#845000000000
0aaaaa

#850000000000
1aaaaa

#855000000000
0aaaaa

#860000000000
1aaaaa

#865000000000
0aaaaa

#870000000000
1aaaaa

#875000000000
0aaaaa

#880000000000
1aaaaa

#885000000000
0aaaaa

#890000000000
1aaaaa

#895000000000
0aaaaa

#900000000000
1aaaaa

#905000000000
0aaaaa

#910000000000
1aaaaa

#915000000000
0aaaaa

#920000000000
1aaaaa

#925000000000
0aaaaa

#930000000000
1aaaaa

#935000000000
0aaaaa

#940000000000
1aaaaa

#945000000000
0aaaaa

#950000000000
1aaaaa

#955000000000
0aaaaa

#960000000000
1aaaaa

#965000000000
0aaaaa

#970000000000
1aaaaa

#975000000000
0aaaaa

#980000000000
1aaaaa

#985000000000
0aaaaa

#990000000000
1aaaaa
b0 aaaad
b0 aaaaj
b0 aaaav

#995000000000
0aaaaa

#1000000000000
1aaaaa

#1005000000000
0aaaaa

#1010000000000
1aaaaa

#1015000000000
0aaaaa

#1020000000000
1aaaaa

#1025000000000
0aaaaa

#1030000000000
1aaaaa

#1035000000000
0aaaaa

#1040000000000
1aaaaa

#1045000000000
0aaaaa

#1050000000000
1aaaaa

#1055000000000
0aaaaa

#1060000000000
1aaaaa

#1065000000000
0aaaaa

#1070000000000
1aaaaa

#1075000000000
0aaaaa

#1080000000000
1aaaaa

#1085000000000
0aaaaa

#1090000000000
1aaaaa

#1095000000000
0aaaaa

#1100000000000
1aaaaa

#1105000000000
0aaaaa

#1110000000000
1aaaaa

#1115000000000
0aaaaa

#1120000000000
1aaaaa

#1125000000000
0aaaaa

#1130000000000
1aaaaa

#1135000000000
0aaaaa

#1140000000000
1aaaaa

#1145000000000
0aaaaa

#1150000000000
1aaaaa

#1155000000000
0aaaaa

#1160000000000
1aaaaa

#1165000000000
0aaaaa

#1170000000000
1aaaaa

#1175000000000
0aaaaa

#1180000000000
1aaaaa

#1185000000000
0aaaaa

#1190000000000
1aaaaa

#1195000000000
0aaaaa

#1200000000000
1aaaaa

#1205000000000
0aaaaa

#1210000000000
1aaaaa

#1215000000000
0aaaaa

#1220000000000
1aaaaa

#1225000000000
0aaaaa

#1230000000000
1aaaaa

#1235000000000
0aaaaa

#1240000000000
1aaaaa
b11 aaaad
b10 aaaap

#1245000000000
0aaaaa

#1250000000000
1aaaaa

#1255000000000
0aaaaa

#1260000000000
1aaaaa

#1265000000000
0aaaaa

#1270000000000
1aaaaa

#1275000000000
0aaaaa

#1280000000000
1aaaaa

#1285000000000
0aaaaa

#1290000000000
1aaaaa

#1295000000000
0aaaaa

#1300000000000
1aaaaa

#1305000000000
0aaaaa

#1310000000000
1aaaaa

#1315000000000
0aaaaa

#1320000000000
1aaaaa

#1325000000000
0aaaaa

#1330000000000
1aaaaa

#1335000000000
0aaaaa

#1340000000000
1aaaaa

#1345000000000
0aaaaa

#1350000000000
1aaaaa

#1355000000000
0aaaaa

#1360000000000
1aaaaa

#1365000000000
0aaaaa

#1370000000000
1aaaaa

#1375000000000
0aaaaa

#1380000000000
1aaaaa

#1385000000000
0aaaaa

#1390000000000
1aaaaa
b1 aaaaj
b1 aaaav

#1395000000000
0aaaaa

#1400000000000
1aaaaa

#1405000000000
0aaaaa

#1410000000000
1aaaaa

#1415000000000
0aaaaa

#1420000000000
1aaaaa

#1425000000000
0aaaaa

#1430000000000
1aaaaa

#1435000000000
0aaaaa

#1440000000000
1aaaaa

#1445000000000
0aaaaa

#1450000000000
1aaaaa

#1455000000000
0aaaaa

#1460000000000
1aaaaa

#1465000000000
0aaaaa

#1470000000000
1aaaaa

#1475000000000
0aaaaa

#1480000000000
1aaaaa

#1485000000000
0aaaaa

#1490000000000
1aaaaa

#1495000000000
0aaaaa

#1500000000000
1aaaaa
b10 aaaaj
b10 aaaav

#1505000000000
0aaaaa

#1510000000000
1aaaaa

#1515000000000
0aaaaa

#1520000000000
1aaaaa

#1525000000000
0aaaaa

#1530000000000
1aaaaa

#1535000000000
0aaaaa

#1540000000000
1aaaaa

#1545000000000
0aaaaa

#1550000000000
1aaaaa

#1555000000000
0aaaaa

#1560000000000
1aaaaa

#1565000000000
0aaaaa

#1570000000000
1aaaaa

#1575000000000
0aaaaa

#1580000000000
1aaaaa

#1585000000000
0aaaaa

#1590000000000
1aaaaa

#1595000000000
0aaaaa

#1600000000000
1aaaaa

#1605000000000
0aaaaa

#1610000000000
1aaaaa

#1615000000000
0aaaaa

#1620000000000
1aaaaa

#1625000000000
0aaaaa

#1630000000000
1aaaaa

#1635000000000
0aaaaa

#1640000000000
1aaaaa

#1645000000000
0aaaaa

#1650000000000
1aaaaa

#1655000000000
0aaaaa

#1660000000000
1aaaaa

#1665000000000
0aaaaa

#1670000000000
1aaaaa

#1675000000000
0aaaaa

#1680000000000
1aaaaa

#1685000000000
0aaaaa

#1690000000000
1aaaaa

#1695000000000
0aaaaa

#1700000000000
1aaaaa

#1705000000000
0aaaaa

#1710000000000
1aaaaa

#1715000000000
0aaaaa

#1720000000000
1aaaaa
b0 aaaap

